ModuleCmd_Switch.c(179):ERROR:152: Module 'PrgEnv-cray/6.0.4' is currently not loaded
 starting wrf task          500  of         1800
 starting wrf task          700  of         1800
 starting wrf task          100  of         1800
 starting wrf task          900  of         1800
 starting wrf task         1400  of         1800
 starting wrf task          300  of         1800
 starting wrf task         1000  of         1800
 starting wrf task          600  of         1800
 starting wrf task          800  of         1800
 starting wrf task         1200  of         1800
 starting wrf task         1100  of         1800
 starting wrf task         1500  of         1800
 starting wrf task         1700  of         1800
 starting wrf task         1300  of         1800
 starting wrf task         1600  of         1800
 starting wrf task          400  of         1800
 starting wrf task          200  of         1800
 starting wrf task          717  of         1800
 starting wrf task          817  of         1800
 starting wrf task          517  of         1800
 starting wrf task           17  of         1800
 starting wrf task          617  of         1800
 starting wrf task          217  of         1800
 starting wrf task          317  of         1800
 starting wrf task         1417  of         1800
 starting wrf task         1217  of         1800
 starting wrf task          417  of         1800
 starting wrf task         1317  of         1800
 starting wrf task         1717  of         1800
 starting wrf task         1117  of         1800
 starting wrf task         1517  of         1800
 starting wrf task         1617  of         1800
 starting wrf task          117  of         1800
 starting wrf task          721  of         1800
 starting wrf task          221  of         1800
 starting wrf task           21  of         1800
 starting wrf task          521  of         1800
 starting wrf task         1121  of         1800
 starting wrf task          525  of         1800
 starting wrf task          125  of         1800
 starting wrf task         1525  of         1800
 starting wrf task         1625  of         1800
 starting wrf task         1025  of         1800
 starting wrf task          725  of         1800
 starting wrf task         1425  of         1800
 starting wrf task           25  of         1800
 starting wrf task          325  of         1800
 starting wrf task          225  of         1800
 starting wrf task         1725  of         1800
 starting wrf task          925  of         1800
 starting wrf task          825  of         1800
 starting wrf task          237  of         1800
 starting wrf task          437  of         1800
 starting wrf task           37  of         1800
 starting wrf task          637  of         1800
 starting wrf task          537  of         1800
 starting wrf task         1337  of         1800
 starting wrf task         1737  of         1800
 starting wrf task         1037  of         1800
 starting wrf task          837  of         1800
 starting wrf task         1437  of         1800
 starting wrf task          337  of         1800
 starting wrf task          737  of         1800
 starting wrf task           41  of         1800
 starting wrf task          241  of         1800
 starting wrf task         1541  of         1800
 starting wrf task         1241  of         1800
 starting wrf task          641  of         1800
 starting wrf task          441  of         1800
 starting wrf task         1041  of         1800
 starting wrf task         1641  of         1800
 starting wrf task          141  of         1800
 starting wrf task          541  of         1800
 starting wrf task          769  of         1800
 starting wrf task          469  of         1800
 starting wrf task          569  of         1800
 starting wrf task         1369  of         1800
 starting wrf task          969  of         1800
 starting wrf task         1169  of         1800
 starting wrf task          169  of         1800
 starting wrf task         1469  of         1800
 starting wrf task         1269  of         1800
 starting wrf task         1669  of         1800
 starting wrf task           69  of         1800
 starting wrf task          269  of         1800
 starting wrf task          669  of         1800
 starting wrf task         1569  of         1800
 starting wrf task         1069  of         1800
 starting wrf task         1769  of         1800
 starting wrf task           89  of         1800
 starting wrf task          389  of         1800
 starting wrf task         1289  of         1800
 starting wrf task         1389  of         1800
 starting wrf task          589  of         1800
 starting wrf task          789  of         1800
 starting wrf task         1689  of         1800
 starting wrf task          689  of         1800
 starting wrf task         1089  of         1800
 starting wrf task          989  of         1800
 starting wrf task          289  of         1800
 starting wrf task          489  of         1800
 starting wrf task         1489  of         1800
 starting wrf task         1589  of         1800
 starting wrf task          889  of         1800
 starting wrf task          697  of         1800
 starting wrf task           97  of         1800
 starting wrf task          597  of         1800
 starting wrf task          397  of         1800
 starting wrf task         1397  of         1800
 starting wrf task         1697  of         1800
 starting wrf task          497  of         1800
 starting wrf task          797  of         1800
 starting wrf task         1797  of         1800
 starting wrf task          297  of         1800
 starting wrf task          997  of         1800
 starting wrf task         1497  of         1800
 starting wrf task         1297  of         1800
 starting wrf task         1597  of         1800
 starting wrf task         1197  of         1800
 starting wrf task          197  of         1800
 starting wrf task         1097  of         1800
 starting wrf task          897  of         1800
 starting wrf task          793  of         1800
 starting wrf task          293  of         1800
 starting wrf task          693  of         1800
 starting wrf task         1293  of         1800
 starting wrf task          393  of         1800
 starting wrf task           93  of         1800
 starting wrf task          593  of         1800
 starting wrf task         1393  of         1800
 starting wrf task         1493  of         1800
 starting wrf task          893  of         1800
 starting wrf task         1693  of         1800
 starting wrf task         1093  of         1800
 starting wrf task         1789  of         1800
 starting wrf task          189  of         1800
 starting wrf task         1189  of         1800
 starting wrf task         1385  of         1800
 starting wrf task          385  of         1800
 starting wrf task         1185  of         1800
 starting wrf task         1485  of         1800
 starting wrf task          485  of         1800
 starting wrf task         1585  of         1800
 starting wrf task         1685  of         1800
 starting wrf task          685  of         1800
 starting wrf task           85  of         1800
 starting wrf task          585  of         1800
 starting wrf task         1785  of         1800
 starting wrf task          285  of         1800
 starting wrf task         1285  of         1800
 starting wrf task          785  of         1800
 starting wrf task          185  of         1800
 starting wrf task          985  of         1800
 starting wrf task         1085  of         1800
 starting wrf task          885  of         1800
 starting wrf task          881  of         1800
 starting wrf task           81  of         1800
 starting wrf task         1081  of         1800
 starting wrf task          181  of         1800
 starting wrf task          481  of         1800
 starting wrf task          281  of         1800
 starting wrf task          681  of         1800
 starting wrf task          677  of         1800
 starting wrf task           77  of         1800
 starting wrf task         1477  of         1800
 starting wrf task          377  of         1800
 starting wrf task          277  of         1800
 starting wrf task          777  of         1800
 starting wrf task          477  of         1800
 starting wrf task          977  of         1800
 starting wrf task         1277  of         1800
 starting wrf task          577  of         1800
 starting wrf task         1077  of         1800
 starting wrf task         1777  of         1800
 starting wrf task         1177  of         1800
 starting wrf task         1377  of         1800
 starting wrf task          877  of         1800
 starting wrf task         1577  of         1800
 starting wrf task         1677  of         1800
 starting wrf task          177  of         1800
 starting wrf task         1573  of         1800
 starting wrf task           73  of         1800
 starting wrf task         1673  of         1800
 starting wrf task         1773  of         1800
 starting wrf task          173  of         1800
 starting wrf task         1473  of         1800
 starting wrf task         1373  of         1800
 starting wrf task         1073  of         1800
 starting wrf task         1173  of         1800
 starting wrf task          973  of         1800
 starting wrf task          673  of         1800
 starting wrf task          873  of         1800
 starting wrf task          773  of         1800
 starting wrf task          273  of         1800
 starting wrf task          573  of         1800
 starting wrf task          473  of         1800
 starting wrf task          369  of         1800
 starting wrf task         1765  of         1800
 starting wrf task         1065  of         1800
 starting wrf task         1265  of         1800
 starting wrf task         1565  of         1800
 starting wrf task         1165  of         1800
 starting wrf task          965  of         1800
 starting wrf task          565  of         1800
 starting wrf task         1365  of         1800
 starting wrf task          165  of         1800
 starting wrf task          865  of         1800
 starting wrf task          465  of         1800
 starting wrf task           65  of         1800
 starting wrf task          665  of         1800
 starting wrf task          765  of         1800
 starting wrf task          361  of         1800
 starting wrf task          161  of         1800
 starting wrf task          561  of         1800
 starting wrf task          261  of         1800
 starting wrf task          761  of         1800
 starting wrf task          661  of         1800
 starting wrf task         1761  of         1800
 starting wrf task         1661  of         1800
 starting wrf task          461  of         1800
 starting wrf task         1461  of         1800
 starting wrf task         1561  of         1800
 starting wrf task         1361  of         1800
 starting wrf task         1261  of         1800
 starting wrf task         1161  of         1800
 starting wrf task           61  of         1800
 starting wrf task          861  of         1800
 starting wrf task         1061  of         1800
 starting wrf task          961  of         1800
 starting wrf task          757  of         1800
 starting wrf task          857  of         1800
 starting wrf task          557  of         1800
 starting wrf task          257  of         1800
 starting wrf task          957  of         1800
 starting wrf task         1357  of         1800
 starting wrf task         1557  of         1800
 starting wrf task         1157  of         1800
 starting wrf task         1657  of         1800
 starting wrf task         1057  of         1800
 starting wrf task         1457  of         1800
 starting wrf task           57  of         1800
 starting wrf task          357  of         1800
 starting wrf task          657  of         1800
 starting wrf task          157  of         1800
 starting wrf task         1257  of         1800
 starting wrf task         1757  of         1800
 starting wrf task          457  of         1800
 starting wrf task         1153  of         1800
 starting wrf task          953  of         1800
 starting wrf task         1253  of         1800
 starting wrf task           53  of         1800
 starting wrf task          353  of         1800
 starting wrf task          653  of         1800
 starting wrf task          553  of         1800
 starting wrf task         1453  of         1800
 starting wrf task         1553  of         1800
 starting wrf task         1753  of         1800
 starting wrf task         1353  of         1800
 starting wrf task          753  of         1800
 starting wrf task          853  of         1800
 starting wrf task          253  of         1800
 starting wrf task         1053  of         1800
 starting wrf task          153  of         1800
 starting wrf task          453  of         1800
 starting wrf task         1149  of         1800
 starting wrf task         1749  of         1800
 starting wrf task         1049  of         1800
 starting wrf task          149  of         1800
 starting wrf task           49  of         1800
 starting wrf task          249  of         1800
 starting wrf task         1649  of         1800
 starting wrf task         1349  of         1800
 starting wrf task          949  of         1800
 starting wrf task          449  of         1800
 starting wrf task          849  of         1800
 starting wrf task          749  of         1800
 starting wrf task          349  of         1800
 starting wrf task         1249  of         1800
 starting wrf task          649  of         1800
 starting wrf task          345  of         1800
 starting wrf task          545  of         1800
 starting wrf task          845  of         1800
 starting wrf task          145  of         1800
 starting wrf task          945  of         1800
 starting wrf task         1345  of         1800
 starting wrf task         1745  of         1800
 starting wrf task         1445  of         1800
 starting wrf task          445  of         1800
 starting wrf task         1145  of         1800
 starting wrf task           45  of         1800
 starting wrf task         1245  of         1800
 starting wrf task          745  of         1800
 starting wrf task         1045  of         1800
 starting wrf task         1545  of         1800
 starting wrf task         1645  of         1800
 starting wrf task          245  of         1800
 starting wrf task          645  of         1800
 starting wrf task          242  of         1800
 starting wrf task          542  of         1800
 starting wrf task          842  of         1800
 starting wrf task         1242  of         1800
 starting wrf task          642  of         1800
 starting wrf task         1142  of         1800
 starting wrf task          742  of         1800
 starting wrf task          442  of         1800
 starting wrf task           42  of         1800
 starting wrf task         1042  of         1800
 starting wrf task         1342  of         1800
 starting wrf task         1537  of         1800
 starting wrf task         1637  of         1800
 starting wrf task          137  of         1800
 starting wrf task         1237  of         1800
 starting wrf task         1137  of         1800
 starting wrf task          937  of         1800
 starting wrf task          933  of         1800
 starting wrf task         1533  of         1800
 starting wrf task          633  of         1800
 starting wrf task           33  of         1800
 starting wrf task          233  of         1800
 starting wrf task         1733  of         1800
 starting wrf task         1433  of         1800
 starting wrf task         1133  of         1800
 starting wrf task          733  of         1800
 starting wrf task         1333  of         1800
 starting wrf task         1233  of         1800
 starting wrf task          533  of         1800
 starting wrf task          333  of         1800
 starting wrf task         1029  of         1800
 starting wrf task         1229  of         1800
 starting wrf task          929  of         1800
 starting wrf task          629  of         1800
 starting wrf task         1129  of         1800
 starting wrf task         1529  of         1800
 starting wrf task         1329  of         1800
 starting wrf task          529  of         1800
 starting wrf task         1429  of         1800
 starting wrf task         1629  of         1800
 starting wrf task          829  of         1800
 starting wrf task          429  of         1800
 starting wrf task          729  of         1800
 starting wrf task          129  of         1800
 starting wrf task          229  of         1800
 starting wrf task           29  of         1800
 starting wrf task         1729  of         1800
 starting wrf task          329  of         1800
 starting wrf task         1426  of         1800
 starting wrf task         1326  of         1800
 starting wrf task         1226  of         1800
 starting wrf task          726  of         1800
 starting wrf task           26  of         1800
 starting wrf task          626  of         1800
 starting wrf task         1026  of         1800
 starting wrf task         1626  of         1800
 starting wrf task          926  of         1800
 starting wrf task         1726  of         1800
 starting wrf task         1526  of         1800
 starting wrf task          326  of         1800
 starting wrf task          126  of         1800
 starting wrf task          526  of         1800
 starting wrf task         1721  of         1800
 starting wrf task         1421  of         1800
 starting wrf task          321  of         1800
 starting wrf task         1321  of         1800
 starting wrf task         1221  of         1800
 starting wrf task          421  of         1800
 starting wrf task         1621  of         1800
 starting wrf task          921  of         1800
 starting wrf task          621  of         1800
 starting wrf task         1521  of         1800
 starting wrf task         1021  of         1800
 starting wrf task          121  of         1800
 starting wrf task          821  of         1800
 starting wrf task         1413  of         1800
 starting wrf task          813  of         1800
 starting wrf task          913  of         1800
 starting wrf task         1113  of         1800
 starting wrf task          413  of         1800
 starting wrf task         1513  of         1800
 starting wrf task         1313  of         1800
 starting wrf task         1213  of         1800
 starting wrf task           13  of         1800
 starting wrf task          713  of         1800
 starting wrf task          213  of         1800
 starting wrf task          113  of         1800
 starting wrf task          313  of         1800
 starting wrf task          513  of         1800
 starting wrf task         1509  of         1800
 starting wrf task         1309  of         1800
 starting wrf task         1609  of         1800
 starting wrf task          505  of         1800
 starting wrf task          805  of         1800
 starting wrf task         1605  of         1800
 starting wrf task         1105  of         1800
 starting wrf task          705  of         1800
 starting wrf task         1405  of         1800
 starting wrf task            5  of         1800
 starting wrf task         1505  of         1800
 starting wrf task         1305  of         1800
 starting wrf task         1705  of         1800
 starting wrf task          905  of         1800
 starting wrf task          105  of         1800
 starting wrf task          305  of         1800
 starting wrf task          405  of         1800
 starting wrf task          401  of         1800
 starting wrf task          601  of         1800
 starting wrf task          801  of         1800
 starting wrf task          501  of         1800
 starting wrf task         1401  of         1800
 starting wrf task            1  of         1800
 starting wrf task         1001  of         1800
 starting wrf task          901  of         1800
 starting wrf task         1101  of         1800
 starting wrf task         1201  of         1800
 starting wrf task         1501  of         1800
 starting wrf task          201  of         1800
 starting wrf task         1701  of         1800
 starting wrf task         1301  of         1800
 starting wrf task          301  of         1800
 starting wrf task         1601  of         1800
 starting wrf task          101  of         1800
 starting wrf task            0  of         1800
 starting wrf task          701  of         1800
 starting wrf task          507  of         1800
 starting wrf task          407  of         1800
 starting wrf task          707  of         1800
 starting wrf task            7  of         1800
 starting wrf task         1507  of         1800
 starting wrf task          207  of         1800
 starting wrf task          607  of         1800
 starting wrf task          107  of         1800
 starting wrf task         1607  of         1800
 starting wrf task         1407  of         1800
 starting wrf task         1107  of         1800
 starting wrf task          307  of         1800
 starting wrf task          609  of         1800
 starting wrf task          809  of         1800
 starting wrf task            9  of         1800
 starting wrf task         1409  of         1800
 starting wrf task          124  of         1800
 starting wrf task          424  of         1800
 starting wrf task           24  of         1800
 starting wrf task          724  of         1800
 starting wrf task         1524  of         1800
 starting wrf task          224  of         1800
 starting wrf task          524  of         1800
 starting wrf task          924  of         1800
 starting wrf task         1624  of         1800
 starting wrf task          324  of         1800
 starting wrf task         1224  of         1800
 starting wrf task         1724  of         1800
 starting wrf task         1125  of         1800
 starting wrf task         1325  of         1800
 starting wrf task          625  of         1800
 starting wrf task         1225  of         1800
 starting wrf task          425  of         1800
 starting wrf task          632  of         1800
 starting wrf task          732  of         1800
 starting wrf task          232  of         1800
 starting wrf task         1232  of         1800
 starting wrf task          532  of         1800
 starting wrf task         1432  of         1800
 starting wrf task          132  of         1800
 starting wrf task          932  of         1800
 starting wrf task          332  of         1800
 starting wrf task         1132  of         1800
 starting wrf task         1732  of         1800
 starting wrf task         1532  of         1800
 starting wrf task         1332  of         1800
 starting wrf task          832  of         1800
 starting wrf task           32  of         1800
 starting wrf task          432  of         1800
 starting wrf task         1632  of         1800
 starting wrf task          736  of         1800
 starting wrf task          236  of         1800
 starting wrf task          436  of         1800
 starting wrf task          636  of         1800
 starting wrf task         1736  of         1800
 starting wrf task          836  of         1800
 starting wrf task         1236  of         1800
 starting wrf task          536  of         1800
 starting wrf task         1336  of         1800
 starting wrf task         1536  of         1800
 starting wrf task          936  of         1800
 starting wrf task          538  of         1800
 starting wrf task         1138  of         1800
 starting wrf task          838  of         1800
 starting wrf task         1038  of         1800
 starting wrf task         1238  of         1800
 starting wrf task          938  of         1800
 starting wrf task          338  of         1800
 starting wrf task          638  of         1800
 starting wrf task         1538  of         1800
 starting wrf task          238  of         1800
 starting wrf task          438  of         1800
 starting wrf task          138  of         1800
 starting wrf task         1341  of         1800
 starting wrf task          841  of         1800
 starting wrf task         1441  of         1800
 starting wrf task          741  of         1800
 starting wrf task          341  of         1800
 starting wrf task          941  of         1800
 starting wrf task         1741  of         1800
 starting wrf task         1141  of         1800
 starting wrf task          146  of         1800
 starting wrf task          746  of         1800
 starting wrf task         1446  of         1800
 starting wrf task          646  of         1800
 starting wrf task          246  of         1800
 starting wrf task          446  of         1800
 starting wrf task          846  of         1800
 starting wrf task          346  of         1800
 starting wrf task          546  of         1800
 starting wrf task         1346  of         1800
 starting wrf task          946  of         1800
 starting wrf task           46  of         1800
 starting wrf task         1246  of         1800
 starting wrf task         1046  of         1800
 starting wrf task         1546  of         1800
 starting wrf task         1449  of         1800
 starting wrf task         1549  of         1800
 starting wrf task          549  of         1800
 starting wrf task          456  of         1800
 starting wrf task         1256  of         1800
 starting wrf task           56  of         1800
 starting wrf task         1556  of         1800
 starting wrf task          956  of         1800
 starting wrf task          356  of         1800
 starting wrf task          556  of         1800
 starting wrf task          958  of         1800
 starting wrf task         1058  of         1800
 starting wrf task         1758  of         1800
 starting wrf task         1158  of         1800
 starting wrf task         1358  of         1800
 starting wrf task          458  of         1800
 starting wrf task          658  of         1800
 starting wrf task         1658  of         1800
 starting wrf task         1458  of         1800
 starting wrf task         1558  of         1800
 starting wrf task         1258  of         1800
 starting wrf task          558  of         1800
 starting wrf task          758  of         1800
 starting wrf task          358  of         1800
 starting wrf task          858  of         1800
 starting wrf task          158  of         1800
 starting wrf task           58  of         1800
 starting wrf task          258  of         1800
 starting wrf task         1768  of         1800
 starting wrf task          468  of         1800
 starting wrf task         1268  of         1800
 starting wrf task          168  of         1800
 starting wrf task          668  of         1800
 starting wrf task         1468  of         1800
 starting wrf task          768  of         1800
 starting wrf task         1568  of         1800
 starting wrf task         1668  of         1800
 starting wrf task          268  of         1800
 starting wrf task          968  of         1800
 starting wrf task          471  of         1800
 starting wrf task          871  of         1800
 starting wrf task          671  of         1800
 starting wrf task         1371  of         1800
 starting wrf task          171  of         1800
 starting wrf task         1474  of         1800
 starting wrf task         1774  of         1800
 starting wrf task         1374  of         1800
 starting wrf task          674  of         1800
 starting wrf task          774  of         1800
 starting wrf task         1274  of         1800
 starting wrf task          274  of         1800
 starting wrf task         1074  of         1800
 starting wrf task         1674  of         1800
 starting wrf task         1574  of         1800
 starting wrf task           74  of         1800
 starting wrf task         1174  of         1800
 starting wrf task         1681  of         1800
 starting wrf task         1181  of         1800
 starting wrf task          781  of         1800
 starting wrf task          381  of         1800
 starting wrf task          581  of         1800
 starting wrf task         1381  of         1800
 starting wrf task         1281  of         1800
 starting wrf task         1581  of         1800
 starting wrf task         1781  of         1800
 starting wrf task         1481  of         1800
 starting wrf task          981  of         1800
 starting wrf task          288  of         1800
 starting wrf task          488  of         1800
 starting wrf task          688  of         1800
 starting wrf task         1388  of         1800
 starting wrf task          788  of         1800
 starting wrf task           88  of         1800
 starting wrf task          888  of         1800
 starting wrf task         1688  of         1800
 starting wrf task         1088  of         1800
 starting wrf task          988  of         1800
 starting wrf task         1488  of         1800
 starting wrf task          388  of         1800
 starting wrf task          588  of         1800
 starting wrf task         1288  of         1800
 starting wrf task          790  of         1800
 starting wrf task         1390  of         1800
 starting wrf task         1790  of         1800
 starting wrf task          290  of         1800
 starting wrf task          190  of         1800
 starting wrf task         1490  of         1800
 starting wrf task         1690  of         1800
 starting wrf task          490  of         1800
 starting wrf task         1090  of         1800
 starting wrf task         1190  of         1800
 starting wrf task          890  of         1800
 starting wrf task          694  of         1800
 starting wrf task          794  of         1800
 starting wrf task          594  of         1800
 starting wrf task         1094  of         1800
 starting wrf task          394  of         1800
 starting wrf task         1394  of         1800
 starting wrf task         1494  of         1800
 starting wrf task         1594  of         1800
 starting wrf task          994  of         1800
 starting wrf task         1794  of         1800
 starting wrf task          294  of         1800
 starting wrf task           94  of         1800
 starting wrf task         1398  of         1800
 starting wrf task         1798  of         1800
 starting wrf task         1198  of         1800
 starting wrf task          698  of         1800
 starting wrf task         1298  of         1800
 starting wrf task          998  of         1800
 starting wrf task          798  of         1800
 starting wrf task         1598  of         1800
 starting wrf task         1098  of         1800
 starting wrf task          898  of         1800
 starting wrf task          498  of         1800
 starting wrf task         1498  of         1800
 starting wrf task          598  of         1800
 starting wrf task           98  of         1800
 starting wrf task          198  of         1800
 starting wrf task          298  of         1800
 starting wrf task         1698  of         1800
 starting wrf task          398  of         1800
 starting wrf task         1499  of         1800
 starting wrf task         1299  of         1800
 starting wrf task          299  of         1800
 starting wrf task         1799  of         1800
 starting wrf task         1199  of         1800
 starting wrf task         1599  of         1800
 starting wrf task         1399  of         1800
 starting wrf task          399  of         1800
 starting wrf task         1099  of         1800
 starting wrf task          799  of         1800
 starting wrf task         1699  of         1800
 starting wrf task          599  of         1800
 starting wrf task          499  of         1800
 starting wrf task          899  of         1800
 starting wrf task           99  of         1800
 starting wrf task          699  of         1800
 starting wrf task          999  of         1800
 starting wrf task          199  of         1800
 starting wrf task         1593  of         1800
 starting wrf task         1793  of         1800
 starting wrf task          193  of         1800
 starting wrf task          493  of         1800
 starting wrf task          993  of         1800
 starting wrf task         1193  of         1800
 starting wrf task         1590  of         1800
 starting wrf task         1286  of         1800
 starting wrf task         1486  of         1800
 starting wrf task          586  of         1800
 starting wrf task          386  of         1800
 starting wrf task         1086  of         1800
 starting wrf task          186  of         1800
 starting wrf task         1586  of         1800
 starting wrf task         1186  of         1800
 starting wrf task          986  of         1800
 starting wrf task         1386  of         1800
 starting wrf task          886  of         1800
 starting wrf task          486  of         1800
 starting wrf task           86  of         1800
 starting wrf task          686  of         1800
 starting wrf task         1686  of         1800
 starting wrf task          286  of         1800
 starting wrf task          786  of         1800
 starting wrf task         1786  of         1800
 starting wrf task          484  of         1800
 starting wrf task          284  of         1800
 starting wrf task         1384  of         1800
 starting wrf task          884  of         1800
 starting wrf task          584  of         1800
 starting wrf task          684  of         1800
 starting wrf task           84  of         1800
 starting wrf task         1184  of         1800
 starting wrf task         1484  of         1800
 starting wrf task          184  of         1800
 starting wrf task          384  of         1800
 starting wrf task          373  of         1800
 starting wrf task         1273  of         1800
 starting wrf task          770  of         1800
 starting wrf task          570  of         1800
 starting wrf task          370  of         1800
 starting wrf task         1770  of         1800
 starting wrf task          270  of         1800
 starting wrf task           70  of         1800
 starting wrf task         1570  of         1800
 starting wrf task          170  of         1800
 starting wrf task          670  of         1800
 starting wrf task         1470  of         1800
 starting wrf task         1070  of         1800
 starting wrf task          470  of         1800
 starting wrf task          265  of         1800
 starting wrf task          365  of         1800
 starting wrf task         1665  of         1800
 starting wrf task         1465  of         1800
 starting wrf task          460  of         1800
 starting wrf task          560  of         1800
 starting wrf task          960  of         1800
 starting wrf task         1060  of         1800
 starting wrf task         1760  of         1800
 starting wrf task         1260  of         1800
 starting wrf task          760  of         1800
 starting wrf task          360  of         1800
 starting wrf task          755  of         1800
 starting wrf task          555  of         1800
 starting wrf task          855  of         1800
 starting wrf task          355  of         1800
 starting wrf task          655  of         1800
 starting wrf task         1055  of         1800
 starting wrf task          455  of         1800
 starting wrf task           55  of         1800
 starting wrf task          955  of         1800
 starting wrf task         1655  of         1800
 starting wrf task         1555  of         1800
 starting wrf task         1755  of         1800
 starting wrf task         1355  of         1800
 starting wrf task          255  of         1800
 starting wrf task         1255  of         1800
 starting wrf task          452  of         1800
 starting wrf task          152  of         1800
 starting wrf task         1152  of         1800
 starting wrf task          352  of         1800
 starting wrf task          852  of         1800
 starting wrf task          752  of         1800
 starting wrf task          552  of         1800
 starting wrf task         1052  of         1800
 starting wrf task          952  of         1800
 starting wrf task         1652  of         1800
 starting wrf task         1352  of         1800
 starting wrf task         1746  of         1800
 starting wrf task         1646  of         1800
 starting wrf task         1146  of         1800
 starting wrf task         1442  of         1800
 starting wrf task          942  of         1800
 starting wrf task         1542  of         1800
 starting wrf task          342  of         1800
 starting wrf task          142  of         1800
 starting wrf task         1742  of         1800
 starting wrf task         1642  of         1800
 starting wrf task           38  of         1800
 starting wrf task          738  of         1800
 starting wrf task          433  of         1800
 starting wrf task          133  of         1800
 starting wrf task         1633  of         1800
 starting wrf task         1033  of         1800
 starting wrf task          833  of         1800
 starting wrf task          130  of         1800
 starting wrf task           30  of         1800
 starting wrf task          730  of         1800
 starting wrf task          330  of         1800
 starting wrf task          630  of         1800
 starting wrf task         1730  of         1800
 starting wrf task          230  of         1800
 starting wrf task          830  of         1800
 starting wrf task          530  of         1800
 starting wrf task          430  of         1800
 starting wrf task          930  of         1800
 starting wrf task         1330  of         1800
 starting wrf task         1030  of         1800
 starting wrf task         1430  of         1800
 starting wrf task          426  of         1800
 starting wrf task          226  of         1800
 starting wrf task          826  of         1800
 starting wrf task         1722  of         1800
 starting wrf task         1522  of         1800
 starting wrf task          422  of         1800
 starting wrf task         1322  of         1800
 starting wrf task          522  of         1800
 starting wrf task          922  of         1800
 starting wrf task          122  of         1800
 starting wrf task         1122  of         1800
 starting wrf task         1022  of         1800
 starting wrf task          722  of         1800
 starting wrf task          322  of         1800
 starting wrf task         1622  of         1800
 starting wrf task          622  of         1800
 starting wrf task           22  of         1800
 starting wrf task          311  of         1800
 starting wrf task          411  of         1800
 starting wrf task         1011  of         1800
 starting wrf task         1711  of         1800
 starting wrf task         1111  of         1800
 starting wrf task         1511  of         1800
 starting wrf task          911  of         1800
 starting wrf task         1411  of         1800
 starting wrf task         1311  of         1800
 starting wrf task           11  of         1800
 starting wrf task          811  of         1800
 starting wrf task          111  of         1800
 starting wrf task         1611  of         1800
 starting wrf task         1306  of         1800
 starting wrf task          606  of         1800
 starting wrf task         1706  of         1800
 starting wrf task         1206  of         1800
 starting wrf task         1006  of         1800
 starting wrf task         1406  of         1800
 starting wrf task         1106  of         1800
 starting wrf task            6  of         1800
 starting wrf task         1606  of         1800
 starting wrf task         1506  of         1800
 starting wrf task          406  of         1800
 starting wrf task          206  of         1800
 starting wrf task          706  of         1800
 starting wrf task         1304  of         1800
 starting wrf task         1104  of         1800
 starting wrf task          304  of         1800
 starting wrf task          904  of         1800
 starting wrf task         1504  of         1800
 starting wrf task          804  of         1800
 starting wrf task          504  of         1800
 starting wrf task          204  of         1800
 starting wrf task         1704  of         1800
 starting wrf task         1404  of         1800
 starting wrf task         1204  of         1800
 starting wrf task            4  of         1800
 starting wrf task          104  of         1800
 starting wrf task          704  of         1800
 starting wrf task          604  of         1800
 starting wrf task         1002  of         1800
 starting wrf task         1602  of         1800
 starting wrf task         1402  of         1800
 starting wrf task          502  of         1800
 starting wrf task          202  of         1800
 starting wrf task            2  of         1800
 starting wrf task         1302  of         1800
 starting wrf task         1502  of         1800
 starting wrf task         1102  of         1800
 starting wrf task          602  of         1800
 starting wrf task         1202  of         1800
 starting wrf task         1702  of         1800
 starting wrf task         1005  of         1800
 starting wrf task         1205  of         1800
 starting wrf task          205  of         1800
 starting wrf task          605  of         1800
 starting wrf task          812  of         1800
 starting wrf task         1712  of         1800
 starting wrf task          912  of         1800
 starting wrf task          312  of         1800
 starting wrf task          712  of         1800
 starting wrf task          512  of         1800
 starting wrf task         1422  of         1800
 starting wrf task          222  of         1800
 starting wrf task          822  of         1800
 starting wrf task         1222  of         1800
 starting wrf task         1527  of         1800
 starting wrf task          927  of         1800
 starting wrf task          827  of         1800
 starting wrf task          427  of         1800
 starting wrf task         1627  of         1800
 starting wrf task         1727  of         1800
 starting wrf task         1027  of         1800
 starting wrf task         1127  of         1800
 starting wrf task         1227  of         1800
 starting wrf task          527  of         1800
 starting wrf task         1427  of         1800
 starting wrf task          627  of         1800
 starting wrf task          127  of         1800
 starting wrf task          327  of         1800
 starting wrf task           27  of         1800
 starting wrf task         1327  of         1800
 starting wrf task          227  of         1800
 starting wrf task          727  of         1800
 starting wrf task         1230  of         1800
 starting wrf task         1530  of         1800
 starting wrf task         1130  of         1800
 starting wrf task         1630  of         1800
 starting wrf task          534  of         1800
 starting wrf task          734  of         1800
 starting wrf task           34  of         1800
 starting wrf task          334  of         1800
 starting wrf task         1734  of         1800
 starting wrf task         1034  of         1800
 starting wrf task         1134  of         1800
 starting wrf task         1334  of         1800
 starting wrf task          634  of         1800
 starting wrf task          134  of         1800
 starting wrf task         1434  of         1800
 starting wrf task         1634  of         1800
 starting wrf task         1234  of         1800
 starting wrf task         1534  of         1800
 starting wrf task          934  of         1800
 starting wrf task          834  of         1800
 starting wrf task          434  of         1800
 starting wrf task          234  of         1800
 starting wrf task          739  of         1800
 starting wrf task          139  of         1800
 starting wrf task          639  of         1800
 starting wrf task          539  of         1800
 starting wrf task         1139  of         1800
 starting wrf task         1039  of         1800
 starting wrf task          239  of         1800
 starting wrf task         1539  of         1800
 starting wrf task          439  of         1800
 starting wrf task         1339  of         1800
 starting wrf task         1739  of         1800
 starting wrf task         1439  of         1800
 starting wrf task          339  of         1800
 starting wrf task          543  of         1800
 starting wrf task          243  of         1800
 starting wrf task          343  of         1800
 starting wrf task          743  of         1800
 starting wrf task         1243  of         1800
 starting wrf task          443  of         1800
 starting wrf task           43  of         1800
 starting wrf task         1443  of         1800
 starting wrf task          643  of         1800
 starting wrf task         1343  of         1800
 starting wrf task         1043  of         1800
 starting wrf task          843  of         1800
 starting wrf task          143  of         1800
 starting wrf task         1643  of         1800
 starting wrf task         1543  of         1800
 starting wrf task         1143  of         1800
 starting wrf task          147  of         1800
 starting wrf task          747  of         1800
 starting wrf task         1447  of         1800
 starting wrf task          447  of         1800
 starting wrf task          547  of         1800
 starting wrf task          647  of         1800
 starting wrf task          347  of         1800
 starting wrf task         1547  of         1800
 starting wrf task           47  of         1800
 starting wrf task         1747  of         1800
 starting wrf task         1047  of         1800
 starting wrf task         1647  of         1800
 starting wrf task         1552  of         1800
 starting wrf task          252  of         1800
 starting wrf task         1452  of         1800
 starting wrf task          652  of         1800
 starting wrf task         1252  of         1800
 starting wrf task         1752  of         1800
 starting wrf task           52  of         1800
 starting wrf task         1354  of         1800
 starting wrf task         1754  of         1800
 starting wrf task         1254  of         1800
 starting wrf task         1154  of         1800
 starting wrf task         1454  of         1800
 starting wrf task          354  of         1800
 starting wrf task         1654  of         1800
 starting wrf task         1054  of         1800
 starting wrf task         1554  of         1800
 starting wrf task          554  of         1800
 starting wrf task          654  of         1800
 starting wrf task          754  of         1800
 starting wrf task          454  of         1800
 starting wrf task          854  of         1800
 starting wrf task          254  of         1800
 starting wrf task         1759  of         1800
 starting wrf task         1159  of         1800
 starting wrf task         1659  of         1800
 starting wrf task         1559  of         1800
 starting wrf task         1359  of         1800
 starting wrf task          659  of         1800
 starting wrf task          359  of         1800
 starting wrf task          159  of         1800
 starting wrf task          959  of         1800
 starting wrf task          259  of         1800
 starting wrf task         1459  of         1800
 starting wrf task         1259  of         1800
 starting wrf task          759  of         1800
 starting wrf task          459  of         1800
 starting wrf task         1166  of         1800
 starting wrf task          966  of         1800
 starting wrf task         1766  of         1800
 starting wrf task         1366  of         1800
 starting wrf task         1566  of         1800
 starting wrf task         1666  of         1800
 starting wrf task         1266  of         1800
 starting wrf task          866  of         1800
 starting wrf task          466  of         1800
 starting wrf task          766  of         1800
 starting wrf task         1466  of         1800
 starting wrf task          366  of         1800
 starting wrf task          566  of         1800
 starting wrf task          166  of         1800
 starting wrf task          266  of         1800
 starting wrf task          666  of         1800
 starting wrf task           66  of         1800
 starting wrf task         1066  of         1800
 starting wrf task         1670  of         1800
 starting wrf task         1170  of         1800
 starting wrf task         1370  of         1800
 starting wrf task          970  of         1800
 starting wrf task         1270  of         1800
 starting wrf task          870  of         1800
 starting wrf task          574  of         1800
 starting wrf task          874  of         1800
 starting wrf task          174  of         1800
 starting wrf task          474  of         1800
 starting wrf task          974  of         1800
 starting wrf task          374  of         1800
 starting wrf task          282  of         1800
 starting wrf task          182  of         1800
 starting wrf task          582  of         1800
 starting wrf task         1182  of         1800
 starting wrf task         1582  of         1800
 starting wrf task          782  of         1800
 starting wrf task         1482  of         1800
 starting wrf task         1782  of         1800
 starting wrf task          682  of         1800
 starting wrf task          882  of         1800
 starting wrf task         1082  of         1800
 starting wrf task          382  of         1800
 starting wrf task          482  of         1800
 starting wrf task          887  of         1800
 starting wrf task          787  of         1800
 starting wrf task           87  of         1800
 starting wrf task          387  of         1800
 starting wrf task          287  of         1800
 starting wrf task         1787  of         1800
 starting wrf task          587  of         1800
 starting wrf task         1187  of         1800
 starting wrf task         1387  of         1800
 starting wrf task         1287  of         1800
 starting wrf task         1487  of         1800
 starting wrf task          487  of         1800
 starting wrf task          687  of         1800
 starting wrf task          991  of         1800
 starting wrf task          191  of         1800
 starting wrf task         1191  of         1800
 starting wrf task         1591  of         1800
 starting wrf task         1491  of         1800
 starting wrf task          891  of         1800
 starting wrf task         1291  of         1800
 starting wrf task         1391  of         1800
 starting wrf task         1691  of         1800
 starting wrf task         1091  of         1800
 starting wrf task          291  of         1800
 starting wrf task          391  of         1800
 starting wrf task          491  of         1800
 starting wrf task          591  of         1800
 starting wrf task          791  of         1800
 starting wrf task           91  of         1800
 starting wrf task          691  of         1800
 starting wrf task         1791  of         1800
 starting wrf task         1194  of         1800
 starting wrf task         1694  of         1800
 starting wrf task          894  of         1800
 starting wrf task          194  of         1800
 starting wrf task         1294  of         1800
 starting wrf task          494  of         1800
 starting wrf task          795  of         1800
 starting wrf task          595  of         1800
 starting wrf task         1295  of         1800
 starting wrf task         1695  of         1800
 starting wrf task         1495  of         1800
 starting wrf task         1795  of         1800
 starting wrf task          395  of         1800
 starting wrf task          195  of         1800
 starting wrf task          495  of         1800
 starting wrf task         1595  of         1800
 starting wrf task         1395  of         1800
 starting wrf task          995  of         1800
 starting wrf task         1195  of         1800
 starting wrf task          295  of         1800
 starting wrf task           95  of         1800
 starting wrf task          695  of         1800
 starting wrf task         1095  of         1800
 starting wrf task         1392  of         1800
 starting wrf task          992  of         1800
 starting wrf task         1592  of         1800
 starting wrf task         1792  of         1800
 starting wrf task          192  of         1800
 starting wrf task         1092  of         1800
 starting wrf task         1492  of         1800
 starting wrf task          892  of         1800
 starting wrf task          392  of         1800
 starting wrf task          692  of         1800
 starting wrf task         1192  of         1800
 starting wrf task         1588  of         1800
 starting wrf task         1788  of         1800
 starting wrf task          188  of         1800
 starting wrf task         1188  of         1800
 starting wrf task          982  of         1800
 starting wrf task         1682  of         1800
 starting wrf task         1382  of         1800
 starting wrf task          275  of         1800
 starting wrf task          575  of         1800
 starting wrf task          775  of         1800
 starting wrf task          175  of         1800
 starting wrf task         1375  of         1800
 starting wrf task          975  of         1800
 starting wrf task         1275  of         1800
 starting wrf task         1175  of         1800
 starting wrf task         1575  of         1800
 starting wrf task         1475  of         1800
 starting wrf task         1075  of         1800
 starting wrf task         1775  of         1800
 starting wrf task          375  of         1800
 starting wrf task           75  of         1800
 starting wrf task         1675  of         1800
 starting wrf task         1671  of         1800
 starting wrf task         1771  of         1800
 starting wrf task         1271  of         1800
 starting wrf task          971  of         1800
 starting wrf task          771  of         1800
 starting wrf task          467  of         1800
 starting wrf task          267  of         1800
 starting wrf task         1667  of         1800
 starting wrf task         1267  of         1800
 starting wrf task          867  of         1800
 starting wrf task         1167  of         1800
 starting wrf task         1767  of         1800
 starting wrf task          167  of         1800
 starting wrf task         1467  of         1800
 starting wrf task         1567  of         1800
 starting wrf task          667  of         1800
 starting wrf task          559  of         1800
 starting wrf task         1653  of         1800
 starting wrf task         1050  of         1800
 starting wrf task         1350  of         1800
 starting wrf task         1650  of         1800
 starting wrf task          550  of         1800
 starting wrf task          150  of         1800
 starting wrf task          850  of         1800
 starting wrf task         1150  of         1800
 starting wrf task         1450  of         1800
 starting wrf task         1750  of         1800
 starting wrf task          950  of         1800
 starting wrf task          750  of         1800
 starting wrf task         1250  of         1800
 starting wrf task          350  of         1800
 starting wrf task          250  of         1800
 starting wrf task          248  of         1800
 starting wrf task          548  of         1800
 starting wrf task          448  of         1800
 starting wrf task          648  of         1800
 starting wrf task         1748  of         1800
 starting wrf task         1648  of         1800
 starting wrf task          148  of         1800
 starting wrf task          748  of         1800
 starting wrf task         1348  of         1800
 starting wrf task         1448  of         1800
 starting wrf task         1048  of         1800
 starting wrf task           48  of         1800
 starting wrf task          348  of         1800
 starting wrf task          848  of         1800
 starting wrf task         1344  of         1800
 starting wrf task         1744  of         1800
 starting wrf task           44  of         1800
 starting wrf task          644  of         1800
 starting wrf task          144  of         1800
 starting wrf task         1544  of         1800
 starting wrf task         1444  of         1800
 starting wrf task         1144  of         1800
 starting wrf task         1644  of         1800
 starting wrf task         1244  of         1800
 starting wrf task          544  of         1800
 starting wrf task          744  of         1800
 starting wrf task          344  of         1800
 starting wrf task         1440  of         1800
 starting wrf task         1640  of         1800
 starting wrf task          740  of         1800
 starting wrf task         1540  of         1800
 starting wrf task          640  of         1800
 starting wrf task         1340  of         1800
 starting wrf task         1040  of         1800
 starting wrf task          940  of         1800
 starting wrf task         1140  of         1800
 starting wrf task         1240  of         1800
 starting wrf task          840  of         1800
 starting wrf task          240  of         1800
 starting wrf task          540  of         1800
 starting wrf task         1740  of         1800
 starting wrf task          440  of         1800
 starting wrf task           40  of         1800
 starting wrf task          140  of         1800
 starting wrf task          340  of         1800
 starting wrf task         1335  of         1800
 starting wrf task         1635  of         1800
 starting wrf task          235  of         1800
 starting wrf task          435  of         1800
 starting wrf task           35  of         1800
 starting wrf task         1435  of         1800
 starting wrf task         1735  of         1800
 starting wrf task         1535  of         1800
 starting wrf task         1235  of         1800
 starting wrf task          935  of         1800
 starting wrf task         1035  of         1800
 starting wrf task          135  of         1800
 starting wrf task         1231  of         1800
 starting wrf task         1431  of         1800
 starting wrf task         1031  of         1800
 starting wrf task          131  of         1800
 starting wrf task          931  of         1800
 starting wrf task         1531  of         1800
 starting wrf task         1731  of         1800
 starting wrf task         1631  of         1800
 starting wrf task         1331  of         1800
 starting wrf task          531  of         1800
 starting wrf task          231  of         1800
 starting wrf task          431  of         1800
 starting wrf task          631  of         1800
 starting wrf task          731  of         1800
 starting wrf task          831  of         1800
 starting wrf task           31  of         1800
 starting wrf task         1131  of         1800
 starting wrf task          331  of         1800
 starting wrf task         1126  of         1800
 starting wrf task          523  of         1800
 starting wrf task          723  of         1800
 starting wrf task           23  of         1800
 starting wrf task          623  of         1800
 starting wrf task         1523  of         1800
 starting wrf task         1423  of         1800
 starting wrf task          423  of         1800
 starting wrf task          823  of         1800
 starting wrf task          223  of         1800
 starting wrf task         1323  of         1800
 starting wrf task         1023  of         1800
 starting wrf task         1223  of         1800
 starting wrf task         1723  of         1800
 starting wrf task          123  of         1800
 starting wrf task          923  of         1800
 starting wrf task          611  of         1800
 starting wrf task          711  of         1800
 starting wrf task          511  of         1800
 starting wrf task         1211  of         1800
 starting wrf task          211  of         1800
 starting wrf task          506  of         1800
 starting wrf task          306  of         1800
 starting wrf task          806  of         1800
 starting wrf task          106  of         1800
 starting wrf task          802  of         1800
 starting wrf task          402  of         1800
 starting wrf task          702  of         1800
 starting wrf task          902  of         1800
 starting wrf task          102  of         1800
 starting wrf task          302  of         1800
 starting wrf task         1503  of         1800
 starting wrf task          903  of         1800
 starting wrf task          303  of         1800
 starting wrf task         1703  of         1800
 starting wrf task          203  of         1800
 starting wrf task         1103  of         1800
 starting wrf task         1303  of         1800
 starting wrf task         1003  of         1800
 starting wrf task         1603  of         1800
 starting wrf task         1203  of         1800
 starting wrf task          503  of         1800
 starting wrf task         1403  of         1800
 starting wrf task          403  of         1800
 starting wrf task            3  of         1800
 starting wrf task          803  of         1800
 starting wrf task          603  of         1800
 starting wrf task          103  of         1800
 starting wrf task          703  of         1800
 starting wrf task         1307  of         1800
 starting wrf task         1207  of         1800
 starting wrf task         1707  of         1800
 starting wrf task         1007  of         1800
 starting wrf task          807  of         1800
 starting wrf task          907  of         1800
 starting wrf task          610  of         1800
 starting wrf task         1410  of         1800
 starting wrf task          410  of         1800
 starting wrf task          510  of         1800
 starting wrf task           10  of         1800
 starting wrf task          810  of         1800
 starting wrf task          910  of         1800
 starting wrf task          210  of         1800
 starting wrf task         1010  of         1800
 starting wrf task          110  of         1800
 starting wrf task         1310  of         1800
 starting wrf task         1210  of         1800
 starting wrf task         1710  of         1800
 starting wrf task          310  of         1800
 starting wrf task         1610  of         1800
 starting wrf task         1510  of         1800
 starting wrf task         1110  of         1800
 starting wrf task          710  of         1800
 starting wrf task         1024  of         1800
 starting wrf task         1324  of         1800
 starting wrf task          824  of         1800
 starting wrf task         1424  of         1800
 starting wrf task          624  of         1800
 starting wrf task         1124  of         1800
 starting wrf task         1228  of         1800
 starting wrf task         1528  of         1800
 starting wrf task         1028  of         1800
 starting wrf task          528  of         1800
 starting wrf task          128  of         1800
 starting wrf task         1428  of         1800
 starting wrf task          228  of         1800
 starting wrf task          928  of         1800
 starting wrf task         1728  of         1800
 starting wrf task         1128  of         1800
 starting wrf task         1628  of         1800
 starting wrf task          728  of         1800
 starting wrf task          328  of         1800
 starting wrf task         1328  of         1800
 starting wrf task           28  of         1800
 starting wrf task          428  of         1800
 starting wrf task          828  of         1800
 starting wrf task          628  of         1800
 starting wrf task         1032  of         1800
 starting wrf task         1036  of         1800
 starting wrf task         1136  of         1800
 starting wrf task          136  of         1800
 starting wrf task         1239  of         1800
 starting wrf task          839  of         1800
 starting wrf task          939  of         1800
 starting wrf task          943  of         1800
 starting wrf task         1743  of         1800
 starting wrf task         1347  of         1800
 starting wrf task         1247  of         1800
 starting wrf task          247  of         1800
 starting wrf task          847  of         1800
 starting wrf task          947  of         1800
 starting wrf task         1147  of         1800
 starting wrf task         1550  of         1800
 starting wrf task           50  of         1800
 starting wrf task          450  of         1800
 starting wrf task          650  of         1800
 starting wrf task          154  of         1800
 starting wrf task          954  of         1800
 starting wrf task           54  of         1800
 starting wrf task         1360  of         1800
 starting wrf task          860  of         1800
 starting wrf task         1460  of         1800
 starting wrf task         1660  of         1800
 starting wrf task         1560  of         1800
 starting wrf task          160  of         1800
 starting wrf task         1160  of         1800
 starting wrf task          260  of         1800
 starting wrf task           60  of         1800
 starting wrf task          660  of         1800
 starting wrf task          568  of         1800
 starting wrf task         1368  of         1800
 starting wrf task         1068  of         1800
 starting wrf task          868  of         1800
 starting wrf task           68  of         1800
 starting wrf task         1168  of         1800
 starting wrf task          368  of         1800
 starting wrf task         1372  of         1800
 starting wrf task         1772  of         1800
 starting wrf task          172  of         1800
 starting wrf task         1172  of         1800
 starting wrf task          372  of         1800
 starting wrf task           72  of         1800
 starting wrf task         1572  of         1800
 starting wrf task         1072  of         1800
 starting wrf task         1672  of         1800
 starting wrf task         1472  of         1800
 starting wrf task          572  of         1800
 starting wrf task          672  of         1800
 starting wrf task          772  of         1800
 starting wrf task          272  of         1800
 starting wrf task         1076  of         1800
 starting wrf task         1276  of         1800
 starting wrf task          376  of         1800
 starting wrf task          876  of         1800
 starting wrf task         1576  of         1800
 starting wrf task         1776  of         1800
 starting wrf task         1376  of         1800
 starting wrf task          976  of         1800
 starting wrf task         1476  of         1800
 starting wrf task         1176  of         1800
 starting wrf task         1676  of         1800
 starting wrf task          576  of         1800
 starting wrf task          476  of         1800
 starting wrf task           76  of         1800
 starting wrf task          176  of         1800
 starting wrf task          776  of         1800
 starting wrf task          676  of         1800
 starting wrf task          276  of         1800
 starting wrf task         1783  of         1800
 starting wrf task          883  of         1800
 starting wrf task         1683  of         1800
 starting wrf task         1283  of         1800
 starting wrf task         1083  of         1800
 starting wrf task         1383  of         1800
 starting wrf task         1583  of         1800
 starting wrf task          783  of         1800
 starting wrf task          583  of         1800
 starting wrf task          283  of         1800
 starting wrf task         1483  of         1800
 starting wrf task         1087  of         1800
 starting wrf task         1587  of         1800
 starting wrf task          987  of         1800
 starting wrf task          187  of         1800
 starting wrf task         1687  of         1800
 starting wrf task          492  of         1800
 starting wrf task          592  of         1800
 starting wrf task         1692  of         1800
 starting wrf task          792  of         1800
 starting wrf task          292  of         1800
 starting wrf task         1292  of         1800
 starting wrf task           92  of         1800
 starting wrf task         1196  of         1800
 starting wrf task          996  of         1800
 starting wrf task          696  of         1800
 starting wrf task         1096  of         1800
 starting wrf task         1296  of         1800
 starting wrf task         1696  of         1800
 starting wrf task         1796  of         1800
 starting wrf task         1596  of         1800
 starting wrf task          196  of         1800
 starting wrf task          296  of         1800
 starting wrf task          796  of         1800
 starting wrf task          596  of         1800
 starting wrf task           96  of         1800
 starting wrf task          396  of         1800
 starting wrf task          496  of         1800
 starting wrf task         1496  of         1800
 starting wrf task          896  of         1800
 starting wrf task         1396  of         1800
 starting wrf task          895  of         1800
 starting wrf task           90  of         1800
 starting wrf task          990  of         1800
 starting wrf task          690  of         1800
 starting wrf task          590  of         1800
 starting wrf task          390  of         1800
 starting wrf task         1290  of         1800
 starting wrf task         1084  of         1800
 starting wrf task         1684  of         1800
 starting wrf task         1784  of         1800
 starting wrf task         1584  of         1800
 starting wrf task          784  of         1800
 starting wrf task         1284  of         1800
 starting wrf task          984  of         1800
 starting wrf task          475  of         1800
 starting wrf task          875  of         1800
 starting wrf task          675  of         1800
 starting wrf task          472  of         1800
 starting wrf task          872  of         1800
 starting wrf task         1272  of         1800
 starting wrf task          972  of         1800
 starting wrf task         1067  of         1800
 starting wrf task          567  of         1800
 starting wrf task         1059  of         1800
 starting wrf task           59  of         1800
 starting wrf task          155  of         1800
 starting wrf task         1155  of         1800
 starting wrf task         1455  of         1800
 starting wrf task         1451  of         1800
 starting wrf task         1251  of         1800
 starting wrf task         1151  of         1800
 starting wrf task           51  of         1800
 starting wrf task          651  of         1800
 starting wrf task          851  of         1800
 starting wrf task          751  of         1800
 starting wrf task         1351  of         1800
 starting wrf task         1751  of         1800
 starting wrf task         1051  of         1800
 starting wrf task         1651  of         1800
 starting wrf task         1551  of         1800
 starting wrf task         1248  of         1800
 starting wrf task         1548  of         1800
 starting wrf task         1148  of         1800
 starting wrf task          948  of         1800
 starting wrf task          944  of         1800
 starting wrf task          844  of         1800
 starting wrf task         1638  of         1800
 starting wrf task         1338  of         1800
 starting wrf task         1438  of         1800
 starting wrf task         1738  of         1800
 starting wrf task           36  of         1800
 starting wrf task         1636  of         1800
 starting wrf task         1623  of         1800
 starting wrf task         1123  of         1800
 starting wrf task          323  of         1800
 starting wrf task         1112  of         1800
 starting wrf task         1312  of         1800
 starting wrf task          412  of         1800
 starting wrf task         1512  of         1800
 starting wrf task          112  of         1800
 starting wrf task          612  of         1800
 starting wrf task         1012  of         1800
 starting wrf task          212  of         1800
 starting wrf task         1412  of         1800
 starting wrf task         1212  of         1800
 starting wrf task         1612  of         1800
 starting wrf task           12  of         1800
 starting wrf task         1308  of         1800
 starting wrf task         1508  of         1800
 starting wrf task         1408  of         1800
 starting wrf task         1008  of         1800
 starting wrf task         1708  of         1800
 starting wrf task         1108  of         1800
 starting wrf task         1208  of         1800
 starting wrf task          908  of         1800
 starting wrf task         1608  of         1800
 starting wrf task          608  of         1800
 starting wrf task            8  of         1800
 starting wrf task          208  of         1800
 starting wrf task          708  of         1800
 starting wrf task          108  of         1800
 starting wrf task          508  of         1800
 starting wrf task          808  of         1800
 starting wrf task          408  of         1800
 starting wrf task          308  of         1800
 starting wrf task         1004  of         1800
 starting wrf task         1604  of         1800
 starting wrf task          404  of         1800
 starting wrf task          906  of         1800
 starting wrf task          909  of         1800
 starting wrf task         1109  of         1800
 starting wrf task         1009  of         1800
 starting wrf task         1709  of         1800
 starting wrf task          509  of         1800
 starting wrf task          409  of         1800
 starting wrf task          209  of         1800
 starting wrf task          109  of         1800
 starting wrf task          335  of         1800
 starting wrf task          535  of         1800
 starting wrf task          635  of         1800
 starting wrf task         1135  of         1800
 starting wrf task          835  of         1800
 starting wrf task          735  of         1800
 starting wrf task           39  of         1800
 starting wrf task         1639  of         1800
 starting wrf task         1044  of         1800
 starting wrf task          244  of         1800
 starting wrf task          444  of         1800
 starting wrf task          351  of         1800
 starting wrf task          251  of         1800
 starting wrf task          451  of         1800
 starting wrf task          151  of         1800
 starting wrf task          951  of         1800
 starting wrf task          551  of         1800
 starting wrf task          856  of         1800
 starting wrf task         1656  of         1800
 starting wrf task         1456  of         1800
 starting wrf task          859  of         1800
 starting wrf task           67  of         1800
 starting wrf task         1367  of         1800
 starting wrf task          767  of         1800
 starting wrf task          367  of         1800
 starting wrf task          967  of         1800
 starting wrf task           71  of         1800
 starting wrf task          571  of         1800
 starting wrf task          271  of         1800
 starting wrf task         1071  of         1800
 starting wrf task          371  of         1800
 starting wrf task         1571  of         1800
 starting wrf task           83  of         1800
 starting wrf task          483  of         1800
 starting wrf task         1183  of         1800
 starting wrf task          183  of         1800
 starting wrf task          683  of         1800
 starting wrf task          383  of         1800
 starting wrf task          983  of         1800
 starting wrf task           82  of         1800
 starting wrf task         1282  of         1800
 starting wrf task         1171  of         1800
 starting wrf task         1471  of         1800
 starting wrf task          256  of         1800
 starting wrf task          656  of         1800
 starting wrf task         1056  of         1800
 starting wrf task          756  of         1800
 starting wrf task         1356  of         1800
 starting wrf task         1156  of         1800
 starting wrf task         1756  of         1800
 starting wrf task         1436  of         1800
 starting wrf task          309  of         1800
 starting wrf task         1209  of         1800
 starting wrf task          709  of         1800
 starting wrf task          336  of         1800
 starting wrf task          156  of         1800
 starting wrf task          869  of         1800
 starting wrf task           79  of         1800
 starting wrf task          279  of         1800
 starting wrf task         1279  of         1800
 starting wrf task          879  of         1800
 starting wrf task          779  of         1800
 starting wrf task          679  of         1800
 starting wrf task          379  of         1800
 starting wrf task          479  of         1800
 starting wrf task         1179  of         1800
 starting wrf task          579  of         1800
 starting wrf task         1779  of         1800
 starting wrf task          979  of         1800
 starting wrf task         1379  of         1800
 starting wrf task          678  of         1800
 starting wrf task          178  of         1800
 starting wrf task          278  of         1800
 starting wrf task          478  of         1800
 starting wrf task          578  of         1800
 starting wrf task         1578  of         1800
 starting wrf task           78  of         1800
 starting wrf task         1678  of         1800
 starting wrf task         1778  of         1800
 starting wrf task          778  of         1800
 starting wrf task         1278  of         1800
 starting wrf task         1378  of         1800
 starting wrf task         1478  of         1800
 starting wrf task         1078  of         1800
 starting wrf task         1178  of         1800
 starting wrf task          878  of         1800
 starting wrf task          978  of         1800
 starting wrf task          164  of         1800
 starting wrf task          364  of         1800
 starting wrf task          464  of         1800
 starting wrf task          764  of         1800
 starting wrf task          564  of         1800
 starting wrf task          864  of         1800
 starting wrf task         1464  of         1800
 starting wrf task          264  of         1800
 starting wrf task         1364  of         1800
 starting wrf task         1764  of         1800
 starting wrf task         1164  of         1800
 starting wrf task          964  of         1800
 starting wrf task          664  of         1800
 starting wrf task         1017  of         1800
 starting wrf task          917  of         1800
 starting wrf task          514  of         1800
 starting wrf task          114  of         1800
 starting wrf task          714  of         1800
 starting wrf task           14  of         1800
 starting wrf task         1314  of         1800
 starting wrf task          314  of         1800
 starting wrf task          914  of         1800
 starting wrf task         1214  of         1800
 starting wrf task         1514  of         1800
 starting wrf task         1014  of         1800
 starting wrf task         1714  of         1800
 starting wrf task         1114  of         1800
 starting wrf task         1614  of         1800
 starting wrf task         1414  of         1800
 starting wrf task          814  of         1800
 starting wrf task          414  of         1800
 starting wrf task         1013  of         1800
 starting wrf task          613  of         1800
 starting wrf task         1713  of         1800
 starting wrf task         1613  of         1800
 starting wrf task          518  of         1800
 starting wrf task          418  of         1800
 starting wrf task          218  of         1800
 starting wrf task           18  of         1800
 starting wrf task          718  of         1800
 starting wrf task         1318  of         1800
 starting wrf task         1018  of         1800
 starting wrf task          618  of         1800
 starting wrf task         1218  of         1800
 starting wrf task          818  of         1800
 starting wrf task          118  of         1800
 starting wrf task          562  of         1800
 starting wrf task          362  of         1800
 starting wrf task         1362  of         1800
 starting wrf task         1762  of         1800
 starting wrf task         1262  of         1800
 starting wrf task          962  of         1800
 starting wrf task         1562  of         1800
 starting wrf task         1680  of         1800
 starting wrf task          480  of         1800
 starting wrf task         1180  of         1800
 starting wrf task         1080  of         1800
 starting wrf task          380  of         1800
 starting wrf task         1580  of         1800
 starting wrf task         1380  of         1800
 starting wrf task         1280  of         1800
 starting wrf task          980  of         1800
 starting wrf task         1480  of         1800
 starting wrf task         1780  of         1800
 starting wrf task          680  of         1800
 starting wrf task          580  of         1800
 starting wrf task          880  of         1800
 starting wrf task          780  of         1800
 starting wrf task          280  of         1800
 starting wrf task           80  of         1800
 starting wrf task          180  of         1800
 starting wrf task         1162  of         1800
 starting wrf task         1662  of         1800
 starting wrf task          762  of         1800
 starting wrf task          162  of         1800
 starting wrf task          262  of         1800
 starting wrf task          662  of         1800
 starting wrf task         1462  of         1800
 starting wrf task         1062  of         1800
 starting wrf task          862  of         1800
 starting wrf task          462  of         1800
 starting wrf task           62  of         1800
 starting wrf task         1420  of         1800
 starting wrf task         1020  of         1800
 starting wrf task         1620  of         1800
 starting wrf task          620  of         1800
 starting wrf task         1720  of         1800
 starting wrf task         1320  of         1800
 starting wrf task          320  of         1800
 starting wrf task         1520  of         1800
 starting wrf task         1220  of         1800
 starting wrf task           20  of         1800
 starting wrf task          220  of         1800
 starting wrf task          120  of         1800
 starting wrf task          520  of         1800
 starting wrf task          420  of         1800
 starting wrf task         1120  of         1800
 starting wrf task          820  of         1800
 starting wrf task          720  of         1800
 starting wrf task          920  of         1800
 starting wrf task          214  of         1800
 starting wrf task          614  of         1800
 starting wrf task         1515  of         1800
 starting wrf task         1115  of         1800
 starting wrf task          315  of         1800
 starting wrf task           15  of         1800
 starting wrf task          915  of         1800
 starting wrf task         1315  of         1800
 starting wrf task         1015  of         1800
 starting wrf task          719  of         1800
 starting wrf task          319  of         1800
 starting wrf task          419  of         1800
 starting wrf task          519  of         1800
 starting wrf task          919  of         1800
 starting wrf task         1419  of         1800
 starting wrf task         1319  of         1800
 starting wrf task         1119  of         1800
 starting wrf task         1219  of         1800
 starting wrf task          119  of         1800
 starting wrf task          819  of         1800
 starting wrf task         1019  of         1800
 starting wrf task         1519  of         1800
 starting wrf task         1763  of         1800
 starting wrf task         1263  of         1800
 starting wrf task          563  of         1800
 starting wrf task         1563  of         1800
 starting wrf task         1163  of         1800
 starting wrf task         1063  of         1800
 starting wrf task         1463  of         1800
 starting wrf task         1663  of         1800
 starting wrf task          763  of         1800
 starting wrf task         1363  of         1800
 starting wrf task          863  of         1800
 starting wrf task          463  of         1800
 starting wrf task          663  of         1800
 starting wrf task          263  of         1800
 starting wrf task          363  of         1800
 starting wrf task           63  of         1800
 starting wrf task          163  of         1800
 starting wrf task          963  of         1800
 starting wrf task         1618  of         1800
 starting wrf task         1718  of         1800
 starting wrf task         1118  of         1800
 starting wrf task          318  of         1800
 starting wrf task         1418  of         1800
 starting wrf task         1518  of         1800
 starting wrf task          918  of         1800
 starting wrf task         1016  of         1800
 starting wrf task         1416  of         1800
 starting wrf task         1716  of         1800
 starting wrf task         1116  of         1800
 starting wrf task         1316  of         1800
 starting wrf task          816  of         1800
 starting wrf task          916  of         1800
 starting wrf task         1216  of         1800
 starting wrf task          416  of         1800
 starting wrf task          216  of         1800
 starting wrf task         1516  of         1800
 starting wrf task          516  of         1800
 starting wrf task          316  of         1800
 starting wrf task          716  of         1800
 starting wrf task          116  of         1800
 starting wrf task         1616  of         1800
 starting wrf task          616  of         1800
 starting wrf task           16  of         1800
 starting wrf task          715  of         1800
 starting wrf task          815  of         1800
 starting wrf task          415  of         1800
 starting wrf task          115  of         1800
 starting wrf task          215  of         1800
 starting wrf task          515  of         1800
 starting wrf task          615  of         1800
 starting wrf task         1215  of         1800
 starting wrf task         1715  of         1800
 starting wrf task         1615  of         1800
 starting wrf task         1415  of         1800
 starting wrf task         1719  of         1800
 starting wrf task          619  of         1800
 starting wrf task          219  of         1800
 starting wrf task           19  of         1800
 starting wrf task         1619  of         1800
 starting wrf task         1564  of         1800
 starting wrf task         1664  of         1800
 starting wrf task         1264  of         1800
 starting wrf task         1064  of         1800
 starting wrf task           64  of         1800
 starting wrf task          378  of         1800
 starting wrf task          179  of         1800
 starting wrf task         1679  of         1800
 starting wrf task         1079  of         1800
 starting wrf task         1479  of         1800
 starting wrf task         1579  of         1800
_pmiu_daemon(SIGCHLD): [NID 01042] [c5-0c1s4n2] [Tue Jun 26 23:38:26 2018] PE RANK 780 exit signal Segmentation fault
[NID 01042] 2018-06-26 23:38:26 Apid 2293010: initiated application termination
